pivot_lobsters.rmd
…
lobsters %>%
  group_by(site, year) %>%
  summarize(count_by_siteyear = n())

## `summarise()` regrouping output by 'site' (override with `.groups` argument)

## # A tibble: 25 x 3
## # Groups:   site [5]
##    site   year count_by_siteyear
##    <chr> <dbl>             <int>
##  1 aque   2012                38
##  2 aque   2013                32
##  3 aque   2014               100
##  4 aque   2015                83
##  5 aque   2016                48
##  6 carp   2012                78
##  7 carp   2013                93
##  8 carp   2014                79
##  9 carp   2015                90
## 10 carp   2016               231
## #  with 15 more rows

lobsters %>% 
  group_by(site, year) %>% 
  summarise(count_by_siteyear = n(), mean_size_mm = mean(size_mm))

## `summarise()` regrouping output by 'site' (override with `.groups` argument)

## # A tibble: 25 x 4
## # Groups:   site [5]
##    site   year count_by_siteyear mean_size_mm
##    <chr> <dbl>             <int>        <dbl>
##  1 aque   2012                38         71  
##  2 aque   2013                32         72.1
##  3 aque   2014               100         76.9
##  4 aque   2015                83         68.5
##  5 aque   2016                48         68.7
##  6 carp   2012                78         74.4
##  7 carp   2013                93         76.6
##  8 carp   2014                79         NA  
##  9 carp   2015                90         70.7
## 10 carp   2016               231         68.9
## #  with 15 more rows

## here we are using na.rm=TRUE to remove all of the cells without any value
lobsters %>%
  group_by(site, year) %>%
  summarize(count_by_siteyear =  n(), 
            mean_size_mm = mean(size_mm, na.rm=TRUE), 
            sd_size_mm = sd(size_mm, na.rm=TRUE))

## `summarise()` regrouping output by 'site' (override with `.groups` argument)

## # A tibble: 25 x 5
## # Groups:   site [5]
##    site   year count_by_siteyear mean_size_mm sd_size_mm
##    <chr> <dbl>             <int>        <dbl>      <dbl>
##  1 aque   2012                38         71        10.2 
##  2 aque   2013                32         72.1      12.3 
##  3 aque   2014               100         76.9       9.32
##  4 aque   2015                83         68.5      12.6 
##  5 aque   2016                48         68.7      12.5 
##  6 carp   2012                78         74.4      14.6 
##  7 carp   2013                93         76.6       8.71
##  8 carp   2014                79         79.1       8.57
##  9 carp   2015                90         70.7      14.6 
## 10 carp   2016               231         68.9      12.5 
## #  with 15 more rows
## take this summarization of data and give it a name. Create a variable so can recal the summarization quickly. We call it siteyear_summary
siteyear_summary <- lobsters %>%
  group_by(site, year) %>%
  summarize(count_by_siteyear =  n(), 
            mean_size_mm = mean(size_mm, na.rm=TRUE), 
            sd_size_mm = sd(size_mm, na.rm=TRUE))

## `summarise()` regrouping output by 'site' (override with `.groups` argument)

## `summarise()` regrouping output by 'site' (override with `.groups` argument)

## inspect our new variable 
siteyear_summary

## # A tibble: 25 x 5
## # Groups:   site [5]
##    site   year count_by_siteyear mean_size_mm sd_size_mm
##    <chr> <dbl>             <int>        <dbl>      <dbl>
##  1 aque   2012                38         71        10.2 
##  2 aque   2013                32         72.1      12.3 
##  3 aque   2014               100         76.9       9.32
##  4 aque   2015                83         68.5      12.6 
##  5 aque   2016                48         68.7      12.5 
##  6 carp   2012                78         74.4      14.6 
##  7 carp   2013                93         76.6       8.71
##  8 carp   2014                79         79.1       8.57
##  9 carp   2015                90         70.7      14.6 
## 10 carp   2016               231         68.9      12.5 
## #  with 15 more rows

## calculate the median lobster size for each site year. Your calculation will use the size_mm variable and function to calculate the median (Hint: ?median)
siteyear_summary <- lobsters %>%
  group_by(site, year) %>%
  summarize(count_by_siteyear =  n(), 
            mean_size_mm = mean(size_mm, na.rm=TRUE), 
            sd_size_mm = sd(size_mm, na.rm=TRUE),
            median_size_mm = median(size_mm, na.rm = TRUE))

## `summarise()` regrouping output by 'site' (override with `.groups` argument)

siteyear_summary

## # A tibble: 25 x 6
## # Groups:   site [5]
##    site   year count_by_siteyear mean_size_mm sd_size_mm median_size_mm
##    <chr> <dbl>             <int>        <dbl>      <dbl>          <dbl>
##  1 aque   2012                38         71        10.2            70  
##  2 aque   2013                32         72.1      12.3            75  
##  3 aque   2014               100         76.9       9.32           75.5
##  4 aque   2015                83         68.5      12.6            70  
##  5 aque   2016                48         68.7      12.5            71  
##  6 carp   2012                78         74.4      14.6            74.5
##  7 carp   2013                93         76.6       8.71           76  
##  8 carp   2014                79         79.1       8.57           79  
##  9 carp   2015                90         70.7      14.6            70  
## 10 carp   2016               231         68.9      12.5            70  
## #  with 15 more rows
…
siteyear_summary2 <- lobsters2 %>%
  group_by(site, year) %>%
  summarize(count_by_siteyear =  n(), 
            mean_size_mm = mean(size_mm, na.rm=TRUE), 
            sd_size_mm = sd(size_mm, na.rm=TRUE),
            median_size_mm = median(size_mm, na.rm = TRUE))

## `summarise()` regrouping output by 'site' (override with `.groups` argument)

siteyear_summary2

## # A tibble: 35 x 6
## # Groups:   site [5]
##    site   year count_by_siteyear mean_size_mm sd_size_mm median_size_mm
##    <chr> <dbl>             <int>        <dbl>      <dbl>          <dbl>
##  1 aque   2012                38         71        10.2            70  
##  2 aque   2013                32         72.1      12.3            75  
##  3 aque   2014               100         76.9       9.32           75.5
##  4 aque   2015                83         68.5      12.6            70  
##  5 aque   2016                48         68.7      12.5            71  
##  6 aque   2017                67         73.9      11.9            75  
##  7 aque   2018                54         71.7       8.14           72  
##  8 carp   2012                78         74.4      14.6            74.5
##  9 carp   2013                93         76.6       8.71           76  
## 10 carp   2014                79         79.1       8.57           79  
## #  with 25 more rows
…
